comp-arch/hw3/dump.vcd
$date
	Fri Dec 29 22:07:09 2023
$end
$version
	Icarus Verilog
$end
$timescale
	1s
$end
$scope module cpu_test $end
$var wire 1 ! register_we3 $end
$var wire 32 " register_wd3 [31:0] $end
$var wire 32 # register_rd2 [31:0] $end
$var wire 32 $ register_rd1 [31:0] $end
$var wire 5 % register_a3 [4:0] $end
$var wire 5 & register_a2 [4:0] $end
$var wire 5 ' register_a1 [4:0] $end
$var wire 32 ( pc_new [31:0] $end
$var wire 32 ) pc [31:0] $end
$var wire 32 * instruction_memory_rd [31:0] $end
$var wire 32 + instruction_memory_a [31:0] $end
$var wire 1 , data_memory_we $end
$var wire 32 - data_memory_wd [31:0] $end
$var wire 32 . data_memory_rd [31:0] $end
$var wire 32 / data_memory_a [31:0] $end
$var reg 1 0 clk $end
$var reg 32 1 i_counter [31:0] $end
$var reg 32 2 mem_counter [31:0] $end
$var reg 32 3 reg_counter [31:0] $end
$scope module cpu $end
$var wire 1 0 clk $end
$var wire 32 4 data_memory_a [31:0] $end
$var wire 32 5 data_memory_wd [31:0] $end
$var wire 1 , data_memory_we $end
$var wire 32 6 instruction_memory_a [31:0] $end
$var wire 1 ! register_we3 $end
$var wire 1 7 zero $end
$var wire 32 8 register_wd3 [31:0] $end
$var wire 32 9 register_rd2 [31:0] $end
$var wire 32 : register_rd1 [31:0] $end
$var wire 5 ; register_a3 [4:0] $end
$var wire 5 < register_a2 [4:0] $end
$var wire 5 = register_a1 [4:0] $end
$var wire 5 > pre_register_a3 [4:0] $end
$var wire 32 ? pre_pre_pc_new [31:0] $end
$var wire 32 @ pre_pc_new [31:0] $end
$var wire 32 A pc_new [31:0] $end
$var wire 32 B pc [31:0] $end
$var wire 32 C new_jump_pc [31:0] $end
$var wire 1 D mem_write $end
$var wire 1 E mem_to_reg $end
$var wire 1 F jr_jump $end
$var wire 1 G jal_jump $end
$var wire 1 H j_jump $end
$var wire 32 I instruction_memory_rd [31:0] $end
$var wire 32 J data_memory_rd [31:0] $end
$var wire 1 K branch $end
$var wire 32 L SrcB [31:0] $end
$var wire 32 M SignImm_after_shift [31:0] $end
$var wire 32 N SignImm [31:0] $end
$var wire 32 O Result [31:0] $end
$var wire 1 P RegWrite $end
$var wire 1 Q RegDst $end
$var wire 1 R PCSrc $end
$var wire 32 S PCPlus4 [31:0] $end
$var wire 32 T PCBranch [31:0] $end
$var wire 1 U ALUSrc $end
$var wire 32 V ALUResult [31:0] $end
$var wire 3 W ALUControl [2:0] $end
$scope module adder1 $end
$var wire 32 X b [31:0] $end
$var wire 32 Y out [31:0] $end
$var wire 32 Z a [31:0] $end
$upscope $end
$scope module adder2 $end
$var wire 32 [ b [31:0] $end
$var wire 32 \ out [31:0] $end
$var wire 32 ] a [31:0] $end
$upscope $end
$scope module alu_1 $end
$var wire 3 ^ control [2:0] $end
$var wire 32 _ b [31:0] $end
$var wire 32 ` a [31:0] $end
$var reg 32 a out [31:0] $end
$var reg 1 7 zero $end
$upscope $end
$scope module and_1 $end
$var wire 1 7 b $end
$var wire 1 R out $end
$var wire 1 K a $end
$upscope $end
$scope module control_unit1 $end
$var wire 32 b PCPlus4 [31:0] $end
$var wire 6 c opcode [5:0] $end
$var wire 6 d funct [5:0] $end
$var wire 32 e all_code [31:0] $end
$var reg 3 f ALUControl [2:0] $end
$var reg 1 U ALUSrc $end
$var reg 1 Q RegDst $end
$var reg 1 P RegWrite $end
$var reg 1 K branch $end
$var reg 1 H j_jump $end
$var reg 1 G jal_jump $end
$var reg 1 F jr_jump $end
$var reg 1 E mem_to_reg $end
$var reg 1 D mem_write $end
$var reg 32 g new_jump_pc [31:0] $end
$upscope $end
$scope module mux2_32_1 $end
$var wire 1 R a $end
$var wire 32 h d0 [31:0] $end
$var wire 32 i d1 [31:0] $end
$var wire 32 j out [31:0] $end
$upscope $end
$scope module mux2_32_2 $end
$var wire 1 U a $end
$var wire 32 k out [31:0] $end
$var wire 32 l d1 [31:0] $end
$var wire 32 m d0 [31:0] $end
$upscope $end
$scope module mux2_32_3 $end
$var wire 1 E a $end
$var wire 32 n d0 [31:0] $end
$var wire 32 o out [31:0] $end
$var wire 32 p d1 [31:0] $end
$upscope $end
$scope module mux2_32_4 $end
$var wire 1 H a $end
$var wire 32 q d0 [31:0] $end
$var wire 32 r d1 [31:0] $end
$var wire 32 s out [31:0] $end
$upscope $end
$scope module mux2_32_5 $end
$var wire 1 G a $end
$var wire 32 t d0 [31:0] $end
$var wire 32 u d1 [31:0] $end
$var wire 32 v out [31:0] $end
$upscope $end
$scope module mux2_32_6 $end
$var wire 1 F a $end
$var wire 32 w d0 [31:0] $end
$var wire 32 x out [31:0] $end
$var wire 32 y d1 [31:0] $end
$upscope $end
$scope module mux2_5_1 $end
$var wire 1 Q a $end
$var wire 5 z d0 [4:0] $end
$var wire 5 { d1 [4:0] $end
$var wire 5 | out [4:0] $end
$upscope $end
$scope module mux2_5_2 $end
$var wire 1 G a $end
$var wire 5 } d0 [4:0] $end
$var wire 5 ~ d1 [4:0] $end
$var wire 5 !" out [4:0] $end
$upscope $end
$scope module shl_2_1 $end
$var wire 32 "" out [31:0] $end
$var wire 32 #" in [31:0] $end
$upscope $end
$scope module sign_extend_1 $end
$var wire 16 $" in [15:0] $end
$var wire 32 %" out [31:0] $end
$upscope $end
$upscope $end
$scope module cpu_data_memory $end
$var wire 32 &" a [31:0] $end
$var wire 1 0 clk $end
$var wire 32 '" rd [31:0] $end
$var wire 32 (" wd [31:0] $end
$var wire 1 , we $end
$var integer 32 )" i [31:0] $end
$upscope $end
$scope module cpu_instruction_memory $end
$var wire 32 *" a [31:0] $end
$var wire 32 +" rd [31:0] $end
$upscope $end
$scope module cpu_register $end
$var wire 5 ," a1 [4:0] $end
$var wire 5 -" a2 [4:0] $end
$var wire 5 ." a3 [4:0] $end
$var wire 1 0 clk $end
$var wire 32 /" rd1 [31:0] $end
$var wire 32 0" rd2 [31:0] $end
$var wire 32 1" wd3 [31:0] $end
$var wire 1 ! we3 $end
$var integer 32 2" i [31:0] $end
$upscope $end
$scope module program_counter $end
$var wire 1 0 clk $end
$var wire 32 3" d [31:0] $end
$var reg 32 4" q [31:0] $end
$upscope $end
$upscope $end
$enddefinitions $end
$comment Show the parameter values. $end
$dumpall
$end
#0
$dumpvars
b0 4"
b100 3"
b100000 2"
b111 1"
b0 0"
b0 /"
b10000 ."
b10000 -"
b0 ,"
b100000000100000000000000000111 +"
b0 *"
b100000000000 )"
b0 ("
b0 '"
b111 &"
b111 %"
b111 $"
b111 #"
b11100 ""
b10000 !"
b11111 ~
b10000 }
b10000 |
b0 {
b10000 z
b0 y
b100 x
b100 w
b111 v
b100 u
b111 t
b100 s
b10000000000000000011100 r
b100 q
b0 p
b111 o
b111 n
b0 m
b111 l
b111 k
b100 j
b100000 i
b100 h
b10000000000000000011100 g
b100 f
b100000000100000000000000000111 e
b111 d
b1000 c
b100 b
b111 a
b0 `
b111 _
b100 ^
b11100 ]
b100000 \
b100 [
b0 Z
b100 Y
b100 X
b100 W
b111 V
1U
b100000 T
b100 S
0R
0Q
1P
b111 O
b111 N
b11100 M
b111 L
0K
b0 J
b100000000100000000000000000111 I
0H
0G
0F
0E
0D
b10000000000000000011100 C
b0 B
b100 A
b100 @
b100 ?
b10000 >
b0 =
b10000 <
b10000 ;
b0 :
b0 9
b111 8
07
b0 6
b0 5
b111 4
bx 3
bx 2
b0 1
x0
b111 /
b0 .
b0 -
0,
b0 +
b100000000100000000000000000111 *
b0 )
b100 (
b0 '
b10000 &
b10000 %
b0 $
b0 #
b111 "
1!
$end
#5
b0 "
b0 8
b0 v
b0 1"
b1100 (
b1100 A
b1100 x
b1100 3"
b0 %
b0 ;
b0 !"
b0 ."
b0 O
b0 o
b0 t
b1100 ?
b1100 s
b1100 w
1H
b1100 M
b1100 ]
b1100 ""
b0 >
b0 |
b0 }
b0 /
b0 4
b0 &"
b0 V
b0 a
b0 n
b0 L
b0 _
b0 k
b1000 @
b1000 j
b1000 q
b11 d
b10 c
b11 N
b11 l
b11 #"
b11 %"
b11 $"
b0 z
b0 &
b0 <
b0 -"
b1100 C
b1100 g
b1100 r
b11 W
b11 ^
b11 f
0!
0P
0U
b10100 T
b10100 \
b10100 i
b1000 S
b1000 Y
b1000 [
b1000 b
b1000 h
b1000 u
b1000000000000000000000000011 *
b1000000000000000000000000011 I
b1000000000000000000000000011 e
b1000000000000000000000000011 +"
b100 +
b100 6
b100 *"
b100 )
b100 B
b100 Z
b100 4"
b0 -
b0 5
b0 ("
b0 #
b0 9
b0 m
b0 0"
10
#10
b1 1
00
#15
b10000 "
b10000 8
b10000 v
b10000 1"
b11111 %
b11111 ;
b11111 !"
b11111 ."
b10100 (
b10100 A
b10100 x
b10100 3"
1G
1!
1P
b10100 M
b10100 ]
b10100 ""
b10100 ?
b10100 s
b10100 w
b10000 @
b10000 j
b10000 q
b101 d
b11 c
b101 N
b101 l
b101 #"
b101 %"
b101 $"
b10100 C
b10100 g
b10100 r
1H
b11 W
b11 ^
b11 f
b100100 T
b100100 \
b100100 i
b10000 S
b10000 Y
b10000 [
b10000 b
b10000 h
b10000 u
b1100000000000000000000000101 *
b1100000000000000000000000101 I
b1100000000000000000000000101 e
b1100000000000000000000000101 +"
b1100 +
b1100 6
b1100 *"
b1100 )
b1100 B
b1100 Z
b1100 4"
10
#20
b10 1
00
#25
b0 O
b0 o
b0 t
b0 /
b0 4
b0 &"
b0 V
b0 a
b0 n
b11000 (
b11000 A
b11000 x
b11000 3"
1,
1D
1U
b0 M
b0 ]
b0 ""
b11111 >
b11111 |
b11111 }
b0 L
b0 _
b0 k
b11000 ?
b11000 s
b11000 w
b11000 @
b11000 j
b11000 q
b0 "
b0 8
b0 v
b0 1"
b0 d
b101011 c
b0 N
b0 l
b0 #"
b0 %"
b0 $"
b11111 z
b10000 -
b10000 5
b10000 ("
b10000 #
b10000 9
b10000 m
b10000 0"
b11111 &
b11111 <
b11111 -"
0G
b11111000000000000000000 C
b11111000000000000000000 g
b11111000000000000000000 r
0H
b10 W
b10 ^
b10 f
0!
0P
b11000 T
b11000 \
b11000 i
b11000 S
b11000 Y
b11000 [
b11000 b
b11000 h
b11000 u
b10101100000111110000000000000000 *
b10101100000111110000000000000000 I
b10101100000111110000000000000000 e
b10101100000111110000000000000000 +"
b10100 +
b10100 6
b10100 *"
b10100 )
b10100 B
b10100 Z
b10100 4"
10
#30
b11 1
00
#35
bx "
bx 8
bx v
bx 1"
b11100 (
b11100 A
b11100 x
b11100 3"
bx %
bx ;
bx !"
bx ."
bx O
bx o
bx t
b11100 ?
b11100 s
b11100 w
bx00 M
bx00 ]
bx00 ""
bx >
bx |
bx }
bx /
bx 4
bx &"
bx V
bx a
bx n
bx L
bx _
bx k
b11100 @
b11100 j
b11100 q
bx d
bx c
bx N
bx l
bx #"
bx %"
bx $"
bx {
bx z
bx -
bx 5
bx ("
bx #
bx 9
bx m
bx 0"
bx &
bx <
bx -"
bx $
bx :
bx `
bx y
bx /"
bx '
bx =
bx ,"
b0xxxxxxxxxxxxxxxxxxxxxxxxxx00 C
b0xxxxxxxxxxxxxxxxxxxxxxxxxx00 g
b0xxxxxxxxxxxxxxxxxxxxxxxxxx00 r
b0 W
b0 ^
b0 f
0U
0,
0D
bx T
bx \
bx i
b11100 S
b11100 Y
b11100 [
b11100 b
b11100 h
b11100 u
bx *
bx I
bx e
bx +"
b11000 +
b11000 6
b11000 *"
b11000 )
b11000 B
b11000 Z
b11000 4"
bx .
bx J
bx p
bx '"
10
#40
b100 1
00
#45
b100000 (
b100000 A
b100000 x
b100000 3"
b100000 ?
b100000 s
b100000 w
b100000 @
b100000 j
b100000 q
b100000 S
b100000 Y
b100000 [
b100000 b
b100000 h
b100000 u
b11100 +
b11100 6
b11100 *"
b11100 )
b11100 B
b11100 Z
b11100 4"
10
#50
b101 1
00
#55
b100100 (
b100100 A
b100100 x
b100100 3"
b100100 ?
b100100 s
b100100 w
b100100 @
b100100 j
b100100 q
b100100 S
b100100 Y
b100100 [
b100100 b
b100100 h
b100100 u
b100000 +
b100000 6
b100000 *"
b100000 )
b100000 B
b100000 Z
b100000 4"
10
#60
b110 1
00
#65
b101000 (
b101000 A
b101000 x
b101000 3"
b101000 ?
b101000 s
b101000 w
b101000 @
b101000 j
b101000 q
b101000 S
b101000 Y
b101000 [
b101000 b
b101000 h
b101000 u
b100100 +
b100100 6
b100100 *"
b100100 )
b100100 B
b100100 Z
b100100 4"
10
#70
b111 1
00
#75
b101100 (
b101100 A
b101100 x
b101100 3"
b101100 ?
b101100 s
b101100 w
b101100 @
b101100 j
b101100 q
b101100 S
b101100 Y
b101100 [
b101100 b
b101100 h
b101100 u
b101000 +
b101000 6
b101000 *"
b101000 )
b101000 B
b101000 Z
b101000 4"
10
#80
b1000 1
00
#85
b110000 (
b110000 A
b110000 x
b110000 3"
b110000 ?
b110000 s
b110000 w
b110000 @
b110000 j
b110000 q
b110000 S
b110000 Y
b110000 [
b110000 b
b110000 h
b110000 u
b101100 +
b101100 6
b101100 *"
b101100 )
b101100 B
b101100 Z
b101100 4"
10
#90
b1001 1
00
#95
b110100 (
b110100 A
b110100 x
b110100 3"
b110100 ?
b110100 s
b110100 w
b110100 @
b110100 j
b110100 q
b110100 S
b110100 Y
b110100 [
b110100 b
b110100 h
b110100 u
b110000 +
b110000 6
b110000 *"
b110000 )
b110000 B
b110000 Z
b110000 4"
10
#100
b1010 1
00
#105
b111000 (
b111000 A
b111000 x
b111000 3"
b111000 ?
b111000 s
b111000 w
b111000 @
b111000 j
b111000 q
b111000 S
b111000 Y
b111000 [
b111000 b
b111000 h
b111000 u
b110100 +
b110100 6
b110100 *"
b110100 )
b110100 B
b110100 Z
b110100 4"
10
#110
b1011 1
00
#115
b111100 (
b111100 A
b111100 x
b111100 3"
b111100 ?
b111100 s
b111100 w
b111100 @
b111100 j
b111100 q
b111100 S
b111100 Y
b111100 [
b111100 b
b111100 h
b111100 u
b111000 +
b111000 6
b111000 *"
b111000 )
b111000 B
b111000 Z
b111000 4"
10
#120
b1100 1
00
#125
b1000000 (
b1000000 A
b1000000 x
b1000000 3"
b1000000 ?
b1000000 s
b1000000 w
b1000000 @
b1000000 j
b1000000 q
b1000000 S
b1000000 Y
b1000000 [
b1000000 b
b1000000 h
b1000000 u
b111100 +
b111100 6
b111100 *"
b111100 )
b111100 B
b111100 Z
b111100 4"
10
#130
b1101 1
00
#135
b1000100 (
b1000100 A
b1000100 x
b1000100 3"
b1000100 ?
b1000100 s
b1000100 w
b1000100 @
b1000100 j
b1000100 q
b1000100 S
b1000100 Y
b1000100 [
b1000100 b
b1000100 h
b1000100 u
b1000000 +
b1000000 6
b1000000 *"
b1000000 )
b1000000 B
b1000000 Z
b1000000 4"
10
#140
b1110 1
00
#145
b1001000 (
b1001000 A
b1001000 x
b1001000 3"
b1001000 ?
b1001000 s
b1001000 w
b1001000 @
b1001000 j
b1001000 q
b1001000 S
b1001000 Y
b1001000 [
b1001000 b
b1001000 h
b1001000 u
b1000100 +
b1000100 6
b1000100 *"
b1000100 )
b1000100 B
b1000100 Z
b1000100 4"
10
#150
b1111 1
00
#155
b1001100 (
b1001100 A
b1001100 x
b1001100 3"
b1001100 ?
b1001100 s
b1001100 w
b1001100 @
b1001100 j
b1001100 q
b1001100 S
b1001100 Y
b1001100 [
b1001100 b
b1001100 h
b1001100 u
b1001000 +
b1001000 6
b1001000 *"
b1001000 )
b1001000 B
b1001000 Z
b1001000 4"
10
#160
b10000 1
00
#165
b1010000 (
b1010000 A
b1010000 x
b1010000 3"
b1010000 ?
b1010000 s
b1010000 w
b1010000 @
b1010000 j
b1010000 q
b1010000 S
b1010000 Y
b1010000 [
b1010000 b
b1010000 h
b1010000 u
b1001100 +
b1001100 6
b1001100 *"
b1001100 )
b1001100 B
b1001100 Z
b1001100 4"
10
#170
b10001 1
00
#175
b1010100 (
b1010100 A
b1010100 x
b1010100 3"
b1010100 ?
b1010100 s
b1010100 w
b1010100 @
b1010100 j
b1010100 q
b1010100 S
b1010100 Y
b1010100 [
b1010100 b
b1010100 h
b1010100 u
b1010000 +
b1010000 6
b1010000 *"
b1010000 )
b1010000 B
b1010000 Z
b1010000 4"
10
#180
b10010 1
00
#185
b1011000 (
b1011000 A
b1011000 x
b1011000 3"
b1011000 ?
b1011000 s
b1011000 w
b1011000 @
b1011000 j
b1011000 q
b1011000 S
b1011000 Y
b1011000 [
b1011000 b
b1011000 h
b1011000 u
b1010100 +
b1010100 6
b1010100 *"
b1010100 )
b1010100 B
b1010100 Z
b1010100 4"
10
#190
b10011 1
00
#195
b1011100 (
b1011100 A
b1011100 x
b1011100 3"
b1011100 ?
b1011100 s
b1011100 w
b1011100 @
b1011100 j
b1011100 q
b1011100 S
b1011100 Y
b1011100 [
b1011100 b
b1011100 h
b1011100 u
b1011000 +
b1011000 6
b1011000 *"
b1011000 )
b1011000 B
b1011000 Z
b1011000 4"
10
#200
b10100 1
00
#205
b1100000 (
b1100000 A
b1100000 x
b1100000 3"
b1100000 ?
b1100000 s
b1100000 w
b1100000 @
b1100000 j
b1100000 q
b1100000 S
b1100000 Y
b1100000 [
b1100000 b
b1100000 h
b1100000 u
b1011100 +
b1011100 6
b1011100 *"
b1011100 )
b1011100 B
b1011100 Z
b1011100 4"
10
#210
b10101 1
00
#215
b1100100 (
b1100100 A
b1100100 x
b1100100 3"
b1100100 ?
b1100100 s
b1100100 w
b1100100 @
b1100100 j
b1100100 q
b1100100 S
b1100100 Y
b1100100 [
b1100100 b
b1100100 h
b1100100 u
b1100000 +
b1100000 6
b1100000 *"
b1100000 )
b1100000 B
b1100000 Z
b1100000 4"
10
#220
b10110 1
00
#225
b1101000 (
b1101000 A
b1101000 x
b1101000 3"
b1101000 ?
b1101000 s
b1101000 w
b1101000 @
b1101000 j
b1101000 q
b1101000 S
b1101000 Y
b1101000 [
b1101000 b
b1101000 h
b1101000 u
b1100100 +
b1100100 6
b1100100 *"
b1100100 )
b1100100 B
b1100100 Z
b1100100 4"
10
#230
b10111 1
00
#235
b1101100 (
b1101100 A
b1101100 x
b1101100 3"
b1101100 ?
b1101100 s
b1101100 w
b1101100 @
b1101100 j
b1101100 q
b1101100 S
b1101100 Y
b1101100 [
b1101100 b
b1101100 h
b1101100 u
b1101000 +
b1101000 6
b1101000 *"
b1101000 )
b1101000 B
b1101000 Z
b1101000 4"
10
#240
b11000 1
00
#245
b1110000 (
b1110000 A
b1110000 x
b1110000 3"
b1110000 ?
b1110000 s
b1110000 w
b1110000 @
b1110000 j
b1110000 q
b1110000 S
b1110000 Y
b1110000 [
b1110000 b
b1110000 h
b1110000 u
b1101100 +
b1101100 6
b1101100 *"
b1101100 )
b1101100 B
b1101100 Z
b1101100 4"
10
#250
b11001 1
00
#255
b1110100 (
b1110100 A
b1110100 x
b1110100 3"
b1110100 ?
b1110100 s
b1110100 w
b1110100 @
b1110100 j
b1110100 q
b1110100 S
b1110100 Y
b1110100 [
b1110100 b
b1110100 h
b1110100 u
b1110000 +
b1110000 6
b1110000 *"
b1110000 )
b1110000 B
b1110000 Z
b1110000 4"
10
#260
b11010 1
00
#265
b1111000 (
b1111000 A
b1111000 x
b1111000 3"
b1111000 ?
b1111000 s
b1111000 w
b1111000 @
b1111000 j
b1111000 q
b1111000 S
b1111000 Y
b1111000 [
b1111000 b
b1111000 h
b1111000 u
b1110100 +
b1110100 6
b1110100 *"
b1110100 )
b1110100 B
b1110100 Z
b1110100 4"
10
#270
b11011 1
00
#275
b1111100 (
b1111100 A
b1111100 x
b1111100 3"
b1111100 ?
b1111100 s
b1111100 w
b1111100 @
b1111100 j
b1111100 q
b1111100 S
b1111100 Y
b1111100 [
b1111100 b
b1111100 h
b1111100 u
b1111000 +
b1111000 6
b1111000 *"
b1111000 )
b1111000 B
b1111000 Z
b1111000 4"
10
#280
b11100 1
00
#285
b10000000 (
b10000000 A
b10000000 x
b10000000 3"
b10000000 ?
b10000000 s
b10000000 w
b10000000 @
b10000000 j
b10000000 q
b10000000 S
b10000000 Y
b10000000 [
b10000000 b
b10000000 h
b10000000 u
b1111100 +
b1111100 6
b1111100 *"
b1111100 )
b1111100 B
b1111100 Z
b1111100 4"
10
#290
b11101 1
00
#295
b10000100 (
b10000100 A
b10000100 x
b10000100 3"
b10000100 ?
b10000100 s
b10000100 w
b10000100 @
b10000100 j
b10000100 q
b10000100 S
b10000100 Y
b10000100 [
b10000100 b
b10000100 h
b10000100 u
b10000000 +
b10000000 6
b10000000 *"
b10000000 )
b10000000 B
b10000000 Z
b10000000 4"
10
#300
b11110 1
00
#305
b10001000 (
b10001000 A
b10001000 x
b10001000 3"
b10001000 ?
b10001000 s
b10001000 w
b10001000 @
b10001000 j
b10001000 q
b10001000 S
b10001000 Y
b10001000 [
b10001000 b
b10001000 h
b10001000 u
b10000100 +
b10000100 6
b10000100 *"
b10000100 )
b10000100 B
b10000100 Z
b10000100 4"
10
#310
b11111 1
00
#315
b10001100 (
b10001100 A
b10001100 x
b10001100 3"
b10001100 ?
b10001100 s
b10001100 w
b10001100 @
b10001100 j
b10001100 q
b10001100 S
b10001100 Y
b10001100 [
b10001100 b
b10001100 h
b10001100 u
b10001000 +
b10001000 6
b10001000 *"
b10001000 )
b10001000 B
b10001000 Z
b10001000 4"
10
#320
b100000 1
00
#325
b10010000 (
b10010000 A
b10010000 x
b10010000 3"
b10010000 ?
b10010000 s
b10010000 w
b10010000 @
b10010000 j
b10010000 q
b10010000 S
b10010000 Y
b10010000 [
b10010000 b
b10010000 h
b10010000 u
b10001100 +
b10001100 6
b10001100 *"
b10001100 )
b10001100 B
b10001100 Z
b10001100 4"
10
#330
b100001 1
00
#335
b10010100 (
b10010100 A
b10010100 x
b10010100 3"
b10010100 ?
b10010100 s
b10010100 w
b10010100 @
b10010100 j
b10010100 q
b10010100 S
b10010100 Y
b10010100 [
b10010100 b
b10010100 h
b10010100 u
b10010000 +
b10010000 6
b10010000 *"
b10010000 )
b10010000 B
b10010000 Z
b10010000 4"
10
#340
b100010 1
00
#345
b10011000 (
b10011000 A
b10011000 x
b10011000 3"
b10011000 ?
b10011000 s
b10011000 w
b10011000 @
b10011000 j
b10011000 q
b10011000 S
b10011000 Y
b10011000 [
b10011000 b
b10011000 h
b10011000 u
b10010100 +
b10010100 6
b10010100 *"
b10010100 )
b10010100 B
b10010100 Z
b10010100 4"
10
#350
b100011 1
00
#355
b10011100 (
b10011100 A
b10011100 x
b10011100 3"
b10011100 ?
b10011100 s
b10011100 w
b10011100 @
b10011100 j
b10011100 q
b10011100 S
b10011100 Y
b10011100 [
b10011100 b
b10011100 h
b10011100 u
b10011000 +
b10011000 6
b10011000 *"
b10011000 )
b10011000 B
b10011000 Z
b10011000 4"
10
#360
b100100 1
00
#365
b10100000 (
b10100000 A
b10100000 x
b10100000 3"
b10100000 ?
b10100000 s
b10100000 w
b10100000 @
b10100000 j
b10100000 q
b10100000 S
b10100000 Y
b10100000 [
b10100000 b
b10100000 h
b10100000 u
b10011100 +
b10011100 6
b10011100 *"
b10011100 )
b10011100 B
b10011100 Z
b10011100 4"
10
#370
b100101 1
00
#375
b10100100 (
b10100100 A
b10100100 x
b10100100 3"
b10100100 ?
b10100100 s
b10100100 w
b10100100 @
b10100100 j
b10100100 q
b10100100 S
b10100100 Y
b10100100 [
b10100100 b
b10100100 h
b10100100 u
b10100000 +
b10100000 6
b10100000 *"
b10100000 )
b10100000 B
b10100000 Z
b10100000 4"
10
#380
b100110 1
00
#385
b10101000 (
b10101000 A
b10101000 x
b10101000 3"
b10101000 ?
b10101000 s
b10101000 w
b10101000 @
b10101000 j
b10101000 q
b10101000 S
b10101000 Y
b10101000 [
b10101000 b
b10101000 h
b10101000 u
b10100100 +
b10100100 6
b10100100 *"
b10100100 )
b10100100 B
b10100100 Z
b10100100 4"
10
#390
b100111 1
00
#395
b10101100 (
b10101100 A
b10101100 x
b10101100 3"
b10101100 ?
b10101100 s
b10101100 w
b10101100 @
b10101100 j
b10101100 q
b10101100 S
b10101100 Y
b10101100 [
b10101100 b
b10101100 h
b10101100 u
b10101000 +
b10101000 6
b10101000 *"
b10101000 )
b10101000 B
b10101000 Z
b10101000 4"
10
#400
b101000 1
00
#405
b10110000 (
b10110000 A
b10110000 x
b10110000 3"
b10110000 ?
b10110000 s
b10110000 w
b10110000 @
b10110000 j
b10110000 q
b10110000 S
b10110000 Y
b10110000 [
b10110000 b
b10110000 h
b10110000 u
b10101100 +
b10101100 6
b10101100 *"
b10101100 )
b10101100 B
b10101100 Z
b10101100 4"
10
#410
b101001 1
00
#415
b10110100 (
b10110100 A
b10110100 x
b10110100 3"
b10110100 ?
b10110100 s
b10110100 w
b10110100 @
b10110100 j
b10110100 q
b10110100 S
b10110100 Y
b10110100 [
b10110100 b
b10110100 h
b10110100 u
b10110000 +
b10110000 6
b10110000 *"
b10110000 )
b10110000 B
b10110000 Z
b10110000 4"
10
#420
b101010 1
00
#425
b10111000 (
b10111000 A
b10111000 x
b10111000 3"
b10111000 ?
b10111000 s
b10111000 w
b10111000 @
b10111000 j
b10111000 q
b10111000 S
b10111000 Y
b10111000 [
b10111000 b
b10111000 h
b10111000 u
b10110100 +
b10110100 6
b10110100 *"
b10110100 )
b10110100 B
b10110100 Z
b10110100 4"
10
#430
b101011 1
00
#435
b10111100 (
b10111100 A
b10111100 x
b10111100 3"
b10111100 ?
b10111100 s
b10111100 w
b10111100 @
b10111100 j
b10111100 q
b10111100 S
b10111100 Y
b10111100 [
b10111100 b
b10111100 h
b10111100 u
b10111000 +
b10111000 6
b10111000 *"
b10111000 )
b10111000 B
b10111000 Z
b10111000 4"
10
#440
b101100 1
00
#445
b11000000 (
b11000000 A
b11000000 x
b11000000 3"
b11000000 ?
b11000000 s
b11000000 w
b11000000 @
b11000000 j
b11000000 q
b11000000 S
b11000000 Y
b11000000 [
b11000000 b
b11000000 h
b11000000 u
b10111100 +
b10111100 6
b10111100 *"
b10111100 )
b10111100 B
b10111100 Z
b10111100 4"
10
#450
b101101 1
00
#455
b11000100 (
b11000100 A
b11000100 x
b11000100 3"
b11000100 ?
b11000100 s
b11000100 w
b11000100 @
b11000100 j
b11000100 q
b11000100 S
b11000100 Y
b11000100 [
b11000100 b
b11000100 h
b11000100 u
b11000000 +
b11000000 6
b11000000 *"
b11000000 )
b11000000 B
b11000000 Z
b11000000 4"
10
#460
b101110 1
00
#465
b11001000 (
b11001000 A
b11001000 x
b11001000 3"
b11001000 ?
b11001000 s
b11001000 w
b11001000 @
b11001000 j
b11001000 q
b11001000 S
b11001000 Y
b11001000 [
b11001000 b
b11001000 h
b11001000 u
b11000100 +
b11000100 6
b11000100 *"
b11000100 )
b11000100 B
b11000100 Z
b11000100 4"
10
#470
b101111 1
00
#475
b11001100 (
b11001100 A
b11001100 x
b11001100 3"
b11001100 ?
b11001100 s
b11001100 w
b11001100 @
b11001100 j
b11001100 q
b11001100 S
b11001100 Y
b11001100 [
b11001100 b
b11001100 h
b11001100 u
b11001000 +
b11001000 6
b11001000 *"
b11001000 )
b11001000 B
b11001000 Z
b11001000 4"
10
#480
b110000 1
00
#485
b11010000 (
b11010000 A
b11010000 x
b11010000 3"
b11010000 ?
b11010000 s
b11010000 w
b11010000 @
b11010000 j
b11010000 q
b11010000 S
b11010000 Y
b11010000 [
b11010000 b
b11010000 h
b11010000 u
b11001100 +
b11001100 6
b11001100 *"
b11001100 )
b11001100 B
b11001100 Z
b11001100 4"
10
#490
b110001 1
00
#495
b11010100 (
b11010100 A
b11010100 x
b11010100 3"
b11010100 ?
b11010100 s
b11010100 w
b11010100 @
b11010100 j
b11010100 q
b11010100 S
b11010100 Y
b11010100 [
b11010100 b
b11010100 h
b11010100 u
b11010000 +
b11010000 6
b11010000 *"
b11010000 )
b11010000 B
b11010000 Z
b11010000 4"
10
#500
b110010 1
00
#505
b11011000 (
b11011000 A
b11011000 x
b11011000 3"
b11011000 ?
b11011000 s
b11011000 w
b11011000 @
b11011000 j
b11011000 q
b11011000 S
b11011000 Y
b11011000 [
b11011000 b
b11011000 h
b11011000 u
b11010100 +
b11010100 6
b11010100 *"
b11010100 )
b11010100 B
b11010100 Z
b11010100 4"
10
#510
b110011 1
00
#515
b11011100 (
b11011100 A
b11011100 x
b11011100 3"
b11011100 ?
b11011100 s
b11011100 w
b11011100 @
b11011100 j
b11011100 q
b11011100 S
b11011100 Y
b11011100 [
b11011100 b
b11011100 h
b11011100 u
b11011000 +
b11011000 6
b11011000 *"
b11011000 )
b11011000 B
b11011000 Z
b11011000 4"
10
#520
b110100 1
00
#525
b11100000 (
b11100000 A
b11100000 x
b11100000 3"
b11100000 ?
b11100000 s
b11100000 w
b11100000 @
b11100000 j
b11100000 q
b11100000 S
b11100000 Y
b11100000 [
b11100000 b
b11100000 h
b11100000 u
b11011100 +
b11011100 6
b11011100 *"
b11011100 )
b11011100 B
b11011100 Z
b11011100 4"
10
#530
b110101 1
00
#535
b11100100 (
b11100100 A
b11100100 x
b11100100 3"
b11100100 ?
b11100100 s
b11100100 w
b11100100 @
b11100100 j
b11100100 q
b11100100 S
b11100100 Y
b11100100 [
b11100100 b
b11100100 h
b11100100 u
b11100000 +
b11100000 6
b11100000 *"
b11100000 )
b11100000 B
b11100000 Z
b11100000 4"
10
#540
b110110 1
00
#545
b11101000 (
b11101000 A
b11101000 x
b11101000 3"
b11101000 ?
b11101000 s
b11101000 w
b11101000 @
b11101000 j
b11101000 q
b11101000 S
b11101000 Y
b11101000 [
b11101000 b
b11101000 h
b11101000 u
b11100100 +
b11100100 6
b11100100 *"
b11100100 )
b11100100 B
b11100100 Z
b11100100 4"
10
#550
b110111 1
00
